-80 -80 -80 -80 -80 -80 464 
-32 -32 -32 -32 -32 -32 -32 -32 -32 -32 -32 -32 -32 -32 -32 -32 -32 -32 -32 -32 -32 -32 -32 -32 -32 
992 
-992 
-80 160 -80 648 
992 
992 
-312 -320 -240 96 
8 -8 8 -8 8 -8 8 -8 8 -8 8 -8 800 
8 -8 136 -8 800 
8 -8 960 